94.143.45.34:8080
92.38.47.226:80
91.205.131.102:8080
91.205.239.120:8080
87.255.27.163:3128
87.226.165.172:80
83.174.230.195:8080
78.37.24.39:8080
77.82.209.215:3128
77.238.129.15:8080
5.167.51.235:8080
37.29.48.78:8080
31.28.23.218:8080
217.9.93.80:8080
217.9.94.6:8080
212.55.101.108:8080
185.52.76.103:8080
185.190.40.75:8080
178.176.28.164:8080
176.120.212.168:41258
176.120.213.34:41258
109.173.23.106:8081
109.173.29.241:8081
109.173.7.85:8081
134.0.113.181:80
178.162.102.173:8081
178.169.64.76:8081
185.148.220.11:8081
185.175.119.207:8081
188.168.69.186:80
188.168.69.186:8080
194.58.121.104:80
212.19.20.247:8081
31.170.112.174:8081
31.186.128.135:8081
37.140.192.221:80
37.204.144.183:8081
37.204.195.42:8081
37.204.49.139:8081
37.228.89.215:80
46.242.1.182:8081
46.242.107.237:8081
62.140.252.21:8081
77.239.254.12:8081
77.244.79.10:8081
77.247.161.182:8081
80.83.231.111:8081
82.198.187.135:8081
82.97.201.203:8888
85.30.219.24:8181
87.117.3.102:8081
88.86.82.133:8081
88.86.94.18:8081
91.122.47.157:8081
91.206.19.193:8081
91.235.247.252:8081
109.61.200.131:8080
176.115.197.118:8080
176.193.167.21:53281
185.22.172.94:10010
185.22.172.94:1448
185.22.174.65:10010
185.22.174.65:1448
185.22.174.68:10010
185.22.174.69:10010
185.22.174.69:1448
185.85.162.32:79
188.254.63.38:8080
194.67.201.106:3128
195.34.241.85:8080
195.64.223.116:3128
212.46.220.214:80
217.15.141.154:53281
217.79.3.94:8080
31.25.26.99:8080
37.235.65.76:8080
46.146.211.23:54917
5.128.60.74:3128
80.234.107.118:56952
85.113.49.129:443
89.17.47.24:8080
89.189.130.205:8080
91.203.169.250:3128
91.210.52.153:8080
91.233.44.140:8080
91.234.97.134:8998
91.237.150.68:8080
93.182.47.200:53281
94.242.55.108:10010
94.242.55.108:1448
94.242.57.136:10010
94.242.57.136:1448
94.242.58.108:10010
94.242.58.108:1448
94.242.58.14:10010
94.242.58.14:1448
94.242.58.142:10010
94.242.58.142:1448
94.242.59.135:10010
94.242.59.135:1448
94.242.59.245:10010
94.242.59.245:1448
94.25.30.19:8080
95.31.19.89:8080
91.195.156.241:3128
78.26.206.117:8080
77.122.152.195:8080
46.63.44.170:8080
46.33.241.171:8888
212.90.183.149:8080
195.211.175.165:3129
134.249.226.114:8081
178.210.129.11:8080
195.80.140.212:8081
109.254.93.195:3128
134.249.173.41:8080
176.37.3.102:8080
195.95.232.75:8080
213.108.73.166:8080
213.109.129.24:53281
37.229.164.92:41890
62.16.5.36:53281
80.249.239.82:8080
91.193.125.1:8080
91.196.159.214:8080
94.45.49.170:8080
101.50.1.2:80
103.101.71.9:80
105.227.4.35:8080
109.160.68.62:8080
109.173.23.106:8081
109.173.29.241:8081
109.173.7.85:8081
110.50.85.174:8080
113.254.114.24:80
114.57.33.214:8080
116.12.89.97:8080
134.0.113.181:80
134.249.226.114:8081
142.44.137.222:80
168.90.67.73:3128
173.212.204.122:3128
174.32.123.230:87
175.106.14.138:8181
175.206.216.48:3128
178.162.102.173:8081
178.169.64.76:8081
178.210.129.11:8080
18.188.113.202:80
18.196.177.186:3128
18.205.105.195:3128
18.208.241.198:80
181.10.129.85:8080
181.143.221.76:53281
181.211.191.227:8080
182.165.175.46:80
182.23.44.196:8080
182.253.178.29:80
182.253.35.173:8080
183.88.57.36:8080
185.118.26.10:80
185.118.26.10:8080
185.148.220.11:8081
185.156.214.34:80
185.175.119.207:8081
185.85.162.32:81
188.168.69.186:80
188.168.69.186:8080
190.122.221.74:8080
190.198.31.167:80
194.58.121.104:80
195.80.140.212:8081
197.210.185.246:8080
200.8.98.4:9000
202.143.122.25:8080
202.148.2.254:8000
202.154.191.200:8080
203.142.76.171:8080
208.65.66.130:8080
212.19.20.247:8081
213.202.193.248:80
219.254.34.231:3128
223.19.212.30:80
223.204.153.161:3128
31.135.24.83:8080
31.170.112.174:8081
31.186.128.135:8081
36.67.231.3:8080
36.74.102.133:8080
37.140.192.221:80
37.204.144.183:8081
37.204.195.42:8081
37.204.49.139:8081
37.228.89.215:80
41.78.243.241:53281
41.79.233.45:8080
42.2.75.95:8080
45.33.52.114:3128
46.242.1.182:8081
46.242.107.237:8081
47.254.22.115:8080
47.91.16.148:3128
5.189.173.213:80
51.15.41.199:80
52.54.88.13:80
54.38.82.11:3128
62.140.252.21:8081
75.150.88.59:80
77.239.254.12:8081
77.244.79.10:8081
77.247.161.182:8081
80.83.231.111:8081
82.198.187.135:8081
82.97.201.203:8888
84.22.35.37:3129
85.29.136.212:8080
85.29.136.212:8085
85.30.219.24:8181
87.117.3.102:8081
88.86.82.133:8081
88.86.94.18:8081
89.234.143.91:3128
91.122.47.157:8081
91.206.19.193:8081
91.235.247.252:8081
92.124.198.66:3128
97.73.14.182:87
98.142.237.108:80
1.1.179.0:8080
1.34.179.144:3128
101.108.252.115:8080
101.51.138.13:8080
101.51.138.3:8080
103.101.71.9:8080
103.119.144.54:8080
103.14.235.26:8080
103.14.235.70:53281
103.15.60.23:8080
103.228.117.244:8080
103.240.35.250:53281
103.254.185.26:8080
103.254.203.44:9001
103.254.209.68:3128
103.26.55.218:8080
103.37.80.250:3128
103.55.48.242:3128
103.69.220.11:8080
103.69.220.21:8080
103.74.239.170:8080
103.79.152.250:8080
104.211.159.55:3128
104.237.226.36:8080
105.208.227.168:8080
106.0.224.154:80
106.0.62.34:8080
108.61.199.94:3128
109.120.224.33:8080
109.122.78.124:8080
109.167.207.72:8080
109.194.194.240:8080
109.195.39.40:3128
109.254.93.195:3128
109.61.200.131:8080
109.69.53.229:8080
109.95.150.88:8080
110.136.250.42:3128
110.36.181.37:8080
110.36.225.254:8080
110.74.196.229:443
110.77.134.106:8080
110.77.196.246:8080
111.90.145.110:3128
111.90.145.111:3128
112.161.201.121:3128
112.198.137.86:53281
113.161.173.10:3128
113.196.135.99:3128
113.203.232.53:8080
113.53.60.204:8080
114.46.43.211:3128
115.69.217.10:3128
115.78.73.60:3128
116.0.54.30:8080
116.12.89.81:8080
116.197.129.122:53281
116.66.197.230:8080
116.93.124.175:8080
117.102.78.42:8080
117.232.98.206:8080
117.239.146.106:3128
117.240.79.20:3128
117.74.124.129:8088
118.96.139.196:8080
118.97.192.155:80
119.15.91.195:8080
119.196.18.50:8080
119.246.140.179:3128
119.42.112.116:80
120.89.54.245:8080
121.152.17.96:3128
121.156.109.92:8080
122.155.168.108:80
123.231.244.142:8080
123.231.251.194:3128
124.158.4.3:8080
124.244.240.6:3128
124.41.240.149:8080
125.160.54.49:8080
125.163.152.35:8080
125.164.113.141:80
125.165.31.30:8080
125.209.73.6:53281
125.212.254.125:3128
125.27.80.250:8080
125.62.213.30:8000
125.99.93.170:8080
128.199.123.128:3129
128.199.179.106:8080
128.199.179.107:8080
128.199.185.30:8080
128.199.191.95:8080
128.199.244.63:3128
128.199.54.182:8080
128.199.96.14:8080
128.199.99.80:8080
134.17.6.69:8080
134.19.174.174:8080
134.249.173.41:8080
136.243.63.59:9090
137.74.131.217:8080
137.74.195.176:8080
138.197.160.230:8000
138.197.160.230:8080
138.197.175.237:8080
138.201.26.22:443
138.201.38.113:3128
138.219.249.193:3128
138.68.99.138:3128
139.0.16.101:8080
139.0.28.210:8080
139.162.35.4:3128
139.194.33.15:8080
139.255.120.5:53281
139.255.74.122:8080
139.59.2.223:8888
14.139.120.105:3128
14.207.43.223:8080
140.82.50.89:3128
142.4.209.32:3128
142.93.128.174:80
142.93.47.45:8000
142.93.68.156:3128
142.93.68.156:80
142.93.68.156:8080
144.217.161.149:8080
144.76.62.29:3128
144.76.76.25:3128
145.14.134.127:3128
146.196.97.98:8080
147.46.153.213:4128
148.217.94.54:3128
151.106.53.195:3128
153.222.84.148:3128
154.236.170.203:8080
156.201.40.247:80
158.69.206.181:8888
158.69.229.64:3128
159.203.174.2:3128
159.203.22.22:8080
159.203.9.111:8080
159.28.206.194:8080
159.65.128.220:8080
159.65.128.41:8080
159.65.132.11:8080
159.65.133.175:3128
159.65.7.64:8080
159.69.31.142:3128
159.89.126.152:8080
159.89.126.222:8080
159.89.22.167:8080
159.89.232.99:8080
160.19.138.28:3128
160.19.227.167:8080
162.155.64.226:3128
165.227.35.117:3128
167.99.15.164:80
167.99.153.166:8080
167.99.156.53:8080
167.99.156.71:8080
167.99.175.164:3128
167.99.187.164:8080
167.99.197.73:8080
167.99.205.69:8080
167.99.214.181:8080
167.99.228.146:80
167.99.242.198:8080
167.99.4.211:8080
167.99.4.74:8080
167.99.42.165:8080
167.99.67.101:8080
167.99.81.107:8080
167.99.81.136:8080
168.1.5.27:3128
169.1.186.181:8888
170.210.136.5:3128
173.212.49.74:8080
173.254.239.143:3128
176.101.177.189:8080
176.109.2.15:8080
176.115.197.118:8080
176.193.167.21:53281
176.212.127.36:3128
176.234.0.20:8080
176.235.11.6:8080
176.235.186.242:8080
176.37.3.102:8080
176.98.159.17:8080
178.128.144.76:8080
178.128.151.22:8080
178.128.151.38:8080
178.128.157.89:8080
178.128.158.55:8080
178.128.165.198:8080
178.128.19.155:3128
178.128.19.166:3128
178.128.19.180:3128
178.128.208.132:8080
178.128.208.145:8080
178.128.209.209:3128
178.128.210.115:8080
178.128.216.29:3128
178.128.221.121:3128
178.128.39.212:8080
178.128.40.193:8080
178.128.47.113:8080
178.128.53.49:8080
178.128.55.56:3128
178.128.59.236:3128
178.128.63.47:8080
178.128.87.55:8080
178.132.220.241:8080
178.170.55.75:80
178.210.129.204:9001
178.220.200.204:8080
178.44.113.205:53281
178.75.0.19:8080
178.89.27.78:8080
18.130.255.216:3128
18.191.242.72:3128
18.219.166.201:3128
18.222.216.56:3128
180.148.211.179:53281
180.183.198.25:3128
180.250.16.138:8080
180.250.220.162:8080
180.250.52.98:8080
180.251.49.175:3128
180.254.117.112:8080
181.10.230.90:3128
181.10.235.76:3128
181.112.62.182:8080
181.115.241.90:80
181.143.105.68:8080
181.143.39.186:80
181.193.59.106:8080
181.196.17.50:3128
181.196.17.50:8080
181.29.119.103:53281
181.49.149.106:80
181.49.149.106:8080
181.57.158.110:3128
182.23.111.66:8080
182.253.107.60:3128
182.253.117.162:8080
182.253.122.60:8080
182.253.130.42:8080
182.253.141.133:8080
182.253.177.243:8080
182.253.25.235:8080
182.30.226.190:8080
182.75.162.211:8080
183.88.106.168:8080
183.88.234.85:8080
183.89.0.59:8080
183.89.104.113:8080
183.89.8.29:8080
184.185.210.124:8080
185.102.237.146:53281
185.12.177.209:80
185.132.251.71:8080
185.142.94.249:9000
185.18.230.126:53281
185.216.35.170:3128
185.22.172.94:10010
185.22.172.94:1448
185.22.174.65:10010
185.22.174.65:1448
185.22.174.68:10010
185.22.174.69:10010
185.22.174.69:1448
185.23.64.100:3130
185.85.162.32:79
185.87.136.37:8080
185.97.122.226:53281
186.121.251.74:53281
186.154.206.210:8080
186.23.255.66:3128
186.24.13.86:3128
186.3.210.197:8080
186.38.42.3:8080
186.4.170.190:8080
186.88.74.136:8080
188.0.161.35:8080
188.0.183.146:8080
188.165.164.9:3128
188.166.191.110:8080
188.166.222.152:3128
188.166.33.184:8080
188.166.70.167:8080
188.186.190.106:53281
188.213.28.67:3128
188.213.31.226:3128
188.225.184.156:8080
188.254.63.38:8080
188.255.182.109:6666
188.255.187.222:8080
188.94.175.210:8080
189.204.158.161:8080
189.252.53.172:8080
190.0.35.6:3128
190.0.9.130:8080
190.107.216.4:8080
190.110.204.174:8080
190.117.225.57:8080
190.129.13.170:3128
190.129.25.60:53281
190.145.80.114:3130
190.151.10.226:8080
190.151.94.45:8080
190.193.221.39:53281
190.198.31.167:3128
190.205.47.186:3128
190.218.230.128:8080
190.234.135.41:53281
190.26.195.98:80
190.90.234.2:3128
192.241.141.108:3128
192.241.154.247:8080
193.242.178.90:8080
193.70.63.196:8080
193.77.101.229:8080
194.135.231.2:80
194.186.150.18:8080
194.190.114.57:8080
194.67.201.106:3128
195.201.124.134:3128
195.201.127.4:8080
195.201.249.226:3128
195.201.43.199:3128
195.239.199.210:8080
195.245.152.182:8080
195.246.57.154:8080
195.34.241.85:8080
195.64.223.116:3128
195.95.232.75:8080
196.250.23.70:3128
197.243.34.228:3128
197.35.38.19:8080
198.23.143.14:3128
198.27.65.39:3128
200.11.228.86:3128
200.111.196.90:8080
200.111.196.91:8080
200.32.51.178:8080
200.48.2.3:8080
200.48.210.5:53281
200.5.83.150:3128
200.57.243.54:3129
200.6.173.180:8080
200.60.176.98:53281
200.72.187.75:8080
200.85.53.242:80
201.150.255.185:3128
201.192.235.250:8080
201.208.167.150:53281
202.152.59.245:8080
202.152.8.212:8080
202.29.236.141:3128
202.37.70.163:53281
202.6.225.145:8080
202.6.228.166:3128
203.142.72.114:808
203.154.82.61:8080
204.48.18.186:80
204.48.31.200:8080
206.189.144.21:8080
206.189.145.13:8080
206.189.146.171:3128
206.189.177.123:8080
206.189.181.5:8080
206.189.189.126:8080
206.189.210.240:3128
206.189.32.172:8080
206.189.82.65:3128
206.189.84.37:3128
206.189.86.49:3128
206.189.88.246:8080
206.189.94.222:8080
206.81.13.127:8080
206.81.6.77:8080
207.154.200.199:3128
207.154.208.76:8080
207.154.237.238:3128
209.97.163.112:8080
209.97.163.117:8080
209.97.167.247:8080
209.97.167.249:8080
209.97.169.25:8080
209.97.171.126:8080
209.97.171.128:8080
209.97.175.95:8080
210.128.16.177:3128
210.211.21.34:8080
210.4.65.74:53281
211.117.85.229:3128
212.174.82.184:8080
212.22.86.107:3130
212.22.86.114:3130
212.237.0.5:8888
212.25.36.55:8080
212.28.84.105:53281
212.46.220.214:80
212.66.61.118:37141
212.72.141.242:8080
212.8.243.88:3128
212.96.177.50:8080
213.108.73.166:8080
213.109.129.24:53281
213.129.118.219:8080
213.136.105.54:3128
213.136.105.54:443
213.136.105.54:80
213.144.123.146:80
213.168.37.86:8080
213.184.226.36:80
213.184.241.28:8080
213.22.75.230:8080
213.239.209.51:3128
213.250.0.74:3128
216.151.22.10:8000
217.15.141.154:53281
217.182.103.42:3128
217.182.119.131:3128
217.19.209.253:8080
217.79.3.94:8080
221.120.219.214:80
23.101.79.123:8080
27.130.119.120:8080
27.131.183.74:8080
31.25.141.148:8080
31.25.26.99:8080
31.28.0.204:8080
31.41.8.35:8080
31.46.171.146:8080
31.46.236.6:8080
35.198.192.108:8080
35.200.84.98:3128
35.240.205.93:3128
36.255.134.25:53281
36.65.46.234:8080
36.65.68.144:80
36.67.145.155:3128
36.67.41.125:80
36.68.86.161:8080
36.72.122.244:3128
36.73.76.28:80
36.75.49.170:8080
36.76.91.83:8080
36.80.160.214:8080
36.81.108.241:8080
36.81.28.201:53281
37.10.74.14:8080
37.157.144.2:8080
37.187.110.165:8080
37.187.99.146:3128
37.193.112.149:57396
37.229.164.92:41890
37.235.65.76:8080
38.98.161.83:8080
40.118.26.183:3128
41.193.79.68:53281
41.205.24.190:8080
41.222.57.199:53281
41.242.103.2:8080
41.33.229.154:8080
41.59.222.162:8080
43.242.242.196:8080
43.242.242.91:8080
45.234.154.7:80
45.249.8.12:8080
45.250.226.11:8080
45.250.226.61:8080
45.55.184.96:3128
45.76.211.149:3128
45.76.211.149:8080
45.76.213.74:3128
46.0.192.177:8080
46.101.145.206:3128
46.101.235.97:8080
46.146.211.23:54917
46.146.224.173:51775
46.16.226.10:8080
46.172.246.110:8080
46.18.205.181:1080
46.253.12.46:53281
46.37.132.239:8080
46.4.162.119:3128
46.99.158.154:53281
47.52.113.154:3128
47.75.103.235:3128
5.128.60.74:3128
5.140.233.151:80
5.140.233.151:8080
5.148.128.44:80
5.160.97.3:8080
5.196.224.39:8080
51.15.13.86:8080
51.15.141.85:3128
51.15.218.114:3128
51.15.242.213:3128
51.15.81.160:3128
51.38.234.95:8080
52.230.0.119:3128
52.66.157.71:3128
52.90.43.61:3128
54.39.16.236:31289
54.39.19.46:31289
54.39.53.142:31289
54.39.53.144:31289
58.137.25.80:8080
58.137.25.81:8080
58.65.175.102:80
60.248.154.19:3128
61.7.219.52:3128
62.16.5.36:53281
62.221.113.58:8080
64.137.191.20:3128
64.77.242.74:3128
66.181.166.140:8080
66.70.147.196:3128
66.70.188.148:3128
70.89.17.213:3130
74.208.123.225:3128
75.151.253.45:53281
76.190.78.10:3128
77.237.121.22:8080
78.10.44.10:8080
78.131.55.55:8080
78.136.240.42:8080
78.140.6.68:53281
78.183.213.43:8080
78.46.244.231:2020
78.66.102.104:3128
78.94.115.70:3128
79.104.219.125:3128
79.118.133.146:8080
79.121.54.4:8080
80.151.27.118:3128
80.211.154.220:8888
80.211.188.52:8888
80.211.230.195:3128
80.234.107.118:56952
80.249.239.82:8080
80.51.79.26:53281
80.82.55.71:8080
80.94.54.44:3128
81.162.69.91:8080
82.135.127.212:3128
82.146.37.33:8888
82.149.221.190:8080
82.199.121.82:8080
82.209.64.77:8080
83.175.166.234:9001
83.246.139.24:8080
84.22.57.130:3128
84.244.18.2:8080
85.113.49.129:443
85.193.193.193:9000
85.248.177.92:3128
85.9.217.48:3355
85.93.34.237:8080
85.95.152.115:8080
86.126.145.109:53281
87.118.208.125:8080
87.229.143.46:8080
87.98.174.157:3128
87.98.219.157:3128
88.116.201.206:8080
88.119.131.86:8080
88.12.60.131:80
88.146.96.188:3128
88.247.165.215:8080
89.102.148.149:80
89.117.207.217:53281
89.163.152.117:8080
89.17.47.24:8080
89.189.130.205:8080
89.36.221.125:3128
89.36.222.247:80
91.121.108.164:3128
91.121.208.196:3128
91.121.253.113:3128
91.187.109.118:80
91.189.234.246:53281
91.193.125.1:8080
91.196.159.214:8080
91.198.137.114:3128
91.198.137.133:3128
91.198.137.134:3128
91.198.137.136:3128
91.198.137.137:3128
91.198.137.138:3128
91.198.137.139:3128
91.198.137.181:3128
91.203.169.250:3128
91.210.177.251:9001
91.210.52.153:8080
91.222.248.224:9001
91.225.190.38:53281
91.227.51.196:8080
91.233.44.140:8080
91.234.97.134:8998
91.237.150.68:8080
91.93.38.66:8888
92.244.158.101:8080
92.247.44.174:8080
92.51.123.190:8080
92.63.151.58:8080
93.123.45.55:53281
93.182.47.200:53281
93.238.79.32:3128
94.130.126.115:8080
94.130.67.175:53281
94.130.92.40:3128
94.130.92.60:3128
94.177.233.135:3128
94.20.21.37:3128
94.230.119.197:8585
94.242.55.108:10010
94.242.55.108:1448
94.242.57.136:10010
94.242.57.136:1448
94.242.58.108:10010
94.242.58.108:1448
94.242.58.14:10010
94.242.58.14:1448
94.242.58.142:10010
94.242.58.142:1448
94.242.59.135:10010
94.242.59.135:1448
94.242.59.245:10010
94.242.59.245:1448
94.25.30.19:8080
94.28.57.100:8080
94.45.205.53:8080
94.45.49.170:8080
94.74.212.109:53281
95.0.194.241:9090
95.0.219.105:8080
95.0.219.98:8080
95.179.161.228:3128
95.216.21.158:3128
95.31.19.89:8080
95.86.57.82:2016
95.87.255.120:8080
103.1.49.23:1080
103.1.94.71:21776
103.107.133.1:21776
103.110.109.60:21776
103.111.30.218:21776
103.117.232.207:21776
103.18.133.34:21776
103.23.34.21:8080
103.241.156.246:8080
103.29.184.44:80
103.30.181.90:53281
103.38.197.42:53281
103.42.252.62:8080
103.81.105.206:21776
103.92.213.5:8080
104.155.103.87:80
104.225.250.92:21776
104.238.157.189:80
104.244.75.218:8080
105.247.157.196:8080
105.247.244.234:21776
107.172.108.95:80
107.181.174.63:10439
107.181.174.63:4113
108.178.206.3:21776
108.178.64.170:53281
109.102.5.226:21776
109.108.87.60:21776
109.108.90.236:21776
109.110.52.210:41258
109.120.252.58:21776
109.121.163.75:53282
109.121.186.22:8080
109.161.48.228:53281
109.172.149.56:8080
109.176.123.178:53281
109.184.97.255:21776
109.195.243.177:8197
109.224.26.189:21776
109.245.229.39:53281
109.62.191.68:21776
109.72.229.77:53281
109.74.50.14:21776
109.74.53.117:21776
109.74.62.2:21776
109.87.40.23:21776
110.44.124.220:53281
110.77.221.245:21776
113.255.181.162:8197
113.255.76.120:8197
114.6.61.98:21776
115.84.179.249:7777
116.212.154.162:53281
117.102.124.58:21776
117.102.69.52:80
117.102.88.121:80
117.102.95.203:21776
118.97.103.26:21776
119.159.233.50:21776
119.42.122.52:21776
121.190.108.137:8080
123.31.47.8:3128
124.109.48.51:21776
124.41.213.92:52136
125.162.90.177:53281
128.140.225.41:80
128.199.113.95:80
128.199.113.95:8080
129.205.160.169:53281
13.70.1.121:80
13.95.231.14:80
132.148.130.208:1371
132.148.130.208:8175
132.148.150.41:80
134.0.106.61:21776
134.249.172.32:21776
137.74.254.242:3128
138.186.21.86:53281
138.197.170.108:80
139.162.102.88:8080
139.162.235.163:31028
139.47.139.166:21776
139.59.223.115:8118
14.207.221.148:80
140.227.70.203:3128
140.227.73.73:3128
140.227.79.198:8080
140.82.52.98:20183
140.82.52.98:3128
142.93.104.183:1080
144.217.82.199:80
144.76.112.26:8080
145.249.105.25:8118
146.158.1.63:53281
148.240.238.10:21776
149.115.117.42:21776
149.12.219.80:53281
150.242.180.151:80
151.237.226.90:53281
151.80.58.175:80
152.231.81.122:53281
153.146.163.197:8080
154.0.162.183:80
154.119.50.246:53281
154.236.177.101:8080
154.73.58.15:21776
155.186.173.52:53281
158.58.130.222:53281
159.65.5.109:1080
159.65.5.109:8123
160.119.153.206:13093
160.16.219.177:60088
162.252.7.9:21776
163.172.173.187:3000
163.172.28.22:80
163.172.98.25:80
164.115.241.78:21776
164.132.98.51:80
165.227.188.89:80
165.227.214.55:2018
168.63.254.101:80
170.246.152.135:41766
171.25.175.22:53281
171.255.199.129:80
172.107.96.222:1080
172.83.138.45:53281
173.212.202.65:80
173.245.239.177:1080
173.245.239.177:16964
173.249.48.138:80
173.249.7.249:44591
173.255.204.5:80
173.69.151.247:80
174.70.241.8:24398
174.75.238.68:16399
174.75.238.82:16409
174.75.238.93:16406
176.107.241.125:41258
176.118.40.239:41258
176.118.49.102:53281
176.120.212.168:41258
176.120.213.34:41258
176.193.67.174:53281
176.215.11.171:21776
176.235.170.245:53281
176.35.51.2:53281
176.53.2.122:8080
176.74.13.110:8080
178.128.239.65:80
178.128.239.65:8080
178.128.72.132:80
178.136.192.223:21776
178.16.164.62:80
178.176.28.164:8080
178.20.48.0:21776
178.210.130.82:41258
178.210.134.183:41258
178.210.154.177:41258
178.214.198.17:21776
178.235.206.201:53281
178.239.59.10:21776
178.248.142.172:21776
178.252.75.80:53281
178.32.204.97:80
178.57.228.148:44331
178.57.82.86:21776
178.62.15.32:1080
179.40.71.101:21776
179.43.81.135:80
179.61.105.19:53281
18.196.25.70:80
18.210.76.219:80
18.221.63.233:80
180.211.134.238:65205
180.252.233.255:53281
180.254.178.143:80
181.10.241.66:53281
181.129.66.18:21776
181.143.22.243:21776
181.143.253.234:41766
181.143.36.163:21776
181.166.160.169:8080
181.192.7.152:53281
181.210.22.198:1080
181.40.95.110:8080
182.160.110.198:21776
182.253.113.42:53281
183.96.217.250:80
184.172.238.18:80
184.178.172.13:15311
184.178.172.18:1080
184.178.172.25:15291
184.178.172.28:15294
184.178.172.5:15303
185.107.48.3:3128
185.107.48.3:8080
185.109.54.227:31280
185.118.141.4:41258
185.121.56.42:21776
185.142.208.109:41258
185.142.208.91:41258
185.153.120.2:8080
185.158.127.9:53281
185.167.28.82:41258
185.18.141.40:41258
185.18.7.47:8080
185.187.93.226:53281
185.188.191.247:21776
185.19.176.237:53281
185.19.215.87:21776
185.190.40.75:8080
185.208.100.227:41258
185.223.115.53:21776
185.232.105.171:53281
185.243.126.120:21776
185.253.88.10:80
185.27.61.112:21776
185.27.61.224:21776
185.27.62.106:21776
185.27.63.104:21776
185.32.144.0:53281
185.37.205.20:41258
185.41.249.117:41258
185.44.68.182:1080
185.48.142.27:41258
185.50.214.11:8080
185.50.214.13:8080
185.52.76.103:8080
185.74.38.210:41258
185.81.96.184:1080
185.91.177.52:41258
186.74.254.38:53281
186.83.66.5:63909
186.96.101.122:8080
187.188.175.237:80
188.115.190.242:53281
188.120.223.89:53281
188.120.234.190:9261
188.126.63.171:41258
188.166.119.186:80
188.166.175.238:80
188.166.223.181:80
188.18.52.137:8080
188.191.233.29:21776
188.191.31.135:41258
188.235.146.116:53281
188.32.213.209:21776
188.40.20.155:8080
188.94.168.30:8080
189.206.226.82:21776
190.121.231.243:21776
190.129.50.102:53281
190.145.74.84:53281
190.151.129.26:21776
190.151.129.27:21776
190.186.58.192:53281
190.186.59.22:52335
190.190.121.46:21776
190.201.29.55:3128
190.211.115.218:8080
190.5.99.94:3128
190.60.103.178:21776
190.78.17.196:3128
190.90.140.84:53281
192.162.101.133:56382
192.169.138.184:12068
192.169.140.100:11643
192.169.140.100:37992
192.169.140.162:14394
192.169.140.74:34055
192.169.182.200:51145
192.169.188.105:60962
192.169.189.215:60962
192.169.217.40:35968
192.169.217.40:5756
192.169.233.35:30314
192.169.237.123:37933
192.169.250.198:40710
192.34.127.28:53281
193.106.24.225:53281
193.227.49.82:21776
193.251.9.141:80
193.30.243.190:21776
193.33.206.251:8080
194.126.183.141:53281
194.126.183.183:53498
194.182.80.117:1080
194.187.149.155:41258
194.87.99.10:1080
194.88.224.236:53281
195.12.59.254:41258
195.122.213.206:41258
195.16.49.18:53281
195.177.75.106:21776
195.182.157.114:41258
195.201.138.167:80
195.201.74.70:80
195.208.132.214:53281
195.208.172.70:8080
195.211.162.139:41258
195.211.175.165:3129
195.211.230.234:8080
195.239.150.130:8080
195.239.87.182:8080
195.242.138.99:41258
195.34.243.40:41258
195.88.42.16:31280
196.22.55.22:53281
196.32.96.105:21776
197.155.158.22:80
197.248.184.158:53281
198.199.127.16:80
199.47.225.57:8080
2.87.236.191:21776
2.87.4.104:21776
200.109.119.126:63909
200.116.227.138:65103
200.122.203.19:21776
200.45.184.186:53281
200.56.146.107:80
200.59.18.250:21776
201.139.120.126:21776
201.139.124.158:21776
201.139.125.86:21776
201.139.125.90:21776
201.184.140.18:21776
201.243.91.50:21776
202.142.153.181:21776
202.142.191.75:39617
202.157.143.116:1080
202.166.117.46:8080
202.166.211.182:21776
202.175.123.148:80
202.56.168.6:53281
202.58.205.126:21776
202.93.128.98:3128
202.93.231.43:41766
203.223.44.122:21776
203.25.102.6:21776
203.78.141.118:8080
204.14.93.161:1080
204.48.19.115:80
205.158.57.2:53281
206.189.132.113:3128
206.189.237.170:80
206.189.93.188:3128
207.148.66.150:8080
209.53.137.30:41766
209.74.107.6:1080
210.1.58.201:8080
212.19.22.193:8080
212.192.202.207:53281
212.22.223.136:3128
212.237.29.185:80
212.237.35.14:1080
212.49.115.67:8080
212.55.101.108:8080
212.77.86.103:80
212.89.176.14:21776
212.90.167.90:55555
212.90.183.149:8080
212.91.178.110:53281
213.127.161.205:53281
213.136.86.234:80
213.148.166.161:53281
213.148.222.155:53281
213.155.191.162:31280
213.167.48.132:21776
213.178.206.158:21776
213.214.81.236:21776
213.222.34.200:53281
213.242.57.144:21776
213.59.153.19:53281
213.59.155.184:41258
213.85.132.18:41258
216.250.99.38:80
217.127.240.233:21776
217.174.182.209:41258
217.199.96.138:53281
217.64.135.216:21776
217.67.117.185:44551
217.77.219.219:21776
217.9.93.80:8080
217.9.94.6:8080
218.50.2.102:8080
220.247.169.26:21776
220.79.34.109:2018
221.120.217.83:21776
23.180.0.25:8080
24.251.52.65:21776
24.255.227.129:6487
27.121.80.201:8080
27.254.130.70:31773
27.98.206.185:3128
27.98.206.187:3128
31.129.166.17:21776
31.130.108.142:53281
31.130.141.13:53281
31.132.108.162:50078
31.134.122.92:41258
31.134.123.204:53281
31.134.125.81:41258
31.148.127.68:1080
31.148.191.101:21776
31.192.148.23:21776
31.25.137.108:8080
31.28.108.99:53281
31.28.23.218:8080
31.42.54.185:21776
31.44.162.6:52281
32.115.161.78:21776
34.195.184.153:80
35.133.161.106:53281
35.184.125.195:80
35.185.201.225:8080
35.187.153.113:80
35.188.29.238:80
35.233.225.185:8080
36.224.231.157:1080
36.233.122.84:1080
36.66.206.197:53281
36.66.45.41:8080
36.67.145.213:21776
36.67.242.209:21776
36.67.57.229:21776
36.67.81.147:21776
36.81.164.64:53281
36.89.241.90:21776
37.110.56.181:52771
37.17.247.58:53281
37.204.19.149:53281
37.220.133.10:21776
37.220.135.14:21776
37.220.143.26:21776
37.221.246.11:53281
37.221.253.128:53281
37.29.48.78:8080
37.57.167.220:41734
37.59.56.88:3605
37.59.80.69:8082
38.127.213.79:21776
38.29.146.10:53281
38.84.132.236:36936
38.84.132.236:37040
38.84.132.236:38114
38.84.132.236:44505
38.84.132.236:46510
39.1.37.111:8080
40.114.226.241:8080
40.114.25.74:80
40.132.242.62:21776
40.74.243.24:80
41.162.61.106:8080
41.189.181.186:53281
41.215.27.190:53281
41.215.32.86:21776
41.33.84.136:21776
41.60.232.31:8080
41.60.233.99:53281
41.60.235.175:8080
41.60.236.138:8080
41.65.84.198:8080
41.77.130.74:53281
41.78.24.178:47502
41.84.135.78:53281
41.90.104.38:8080
41.90.110.46:53281
42.115.91.82:52225
43.229.252.45:53281
43.249.143.89:31191
45.115.39.139:7777
45.195.201.235:3128
45.249.184.62:27393
45.32.191.149:80
45.33.104.151:1080
45.55.169.78:48300
45.55.169.78:54914
45.77.88.221:1544
45.77.88.221:1980
45.77.88.221:2413
45.77.88.221:2419
45.77.88.221:2493
45.77.88.221:2583
45.77.88.221:2659
45.77.88.221:2833
45.77.88.221:3565
45.77.88.221:3973
45.77.88.221:4421
45.77.88.221:4615
45.77.88.221:4751
45.77.88.221:4836
45.79.139.169:80
46.0.233.169:8080
46.10.157.84:8080
46.105.87.167:53281
46.149.86.113:21776
46.16.225.73:41258
46.16.231.15:41258
46.174.164.236:21776
46.189.254.120:29883
46.19.231.54:38007
46.201.241.67:53281
46.209.221.138:21776
46.219.120.169:8080
46.254.79.8:21776
46.33.241.171:8888
46.35.188.7:21776
46.35.233.176:8080
46.35.249.144:13754
46.36.70.236:41258
46.4.114.134:3128
46.4.62.108:80
46.4.72.197:8080
46.47.81.186:8080
46.61.219.236:8080
46.63.104.139:8080
46.63.44.170:8080
47.254.36.56:808
47.254.42.156:808
47.52.208.159:80
47.52.89.61:8088
47.52.90.137:80
47.75.74.177:1080
47.89.23.52:80
47.89.241.103:8080
47.90.126.204:8090
47.90.38.196:80
47.90.87.225:88
47.91.156.171:80
47.91.237.251:80
5.101.194.180:8080
5.166.227.75:53281
5.167.51.235:8080
5.167.96.238:3128
5.189.133.231:80
5.196.76.41:35094
5.196.76.41:36379
5.196.76.41:37225
5.196.76.41:37228
5.196.76.41:41679
5.196.76.41:47026
5.196.76.41:49717
5.199.235.109:53281
5.206.32.245:21776
5.228.190.11:21776
5.39.164.207:29646
5.39.27.169:80
5.39.48.34:443
5.39.48.34:80
5.57.233.18:8080
51.15.147.94:80
51.254.132.238:80
51.254.132.238:90
51.38.192.206:80
51.38.71.101:8080
52.221.40.19:80
52.42.234.31:80
52.73.142.76:8080
54.177.53.69:80
54.194.92.235:80
54.38.56.252:443
54.38.56.252:80
58.181.39.182:80
58.82.162.100:8080
60.250.79.187:80
61.224.188.138:1080
61.6.54.97:53281
61.8.69.194:21776
62.173.174.225:41258
62.201.225.42:21776
62.213.14.166:8080
62.217.97.166:21776
62.24.109.77:53281
62.4.60.50:53281
62.80.172.251:41258
64.118.87.14:27330
66.110.216.221:39603
66.181.166.23:8080
66.181.167.72:53281
66.70.166.200:80
66.96.233.37:8080
67.205.154.3:80
67.63.33.7:80
68.113.148.78:53281
68.228.21.140:21776
69.55.223.64:21776
70.165.116.215:21776
70.166.38.93:24827
70.168.93.201:17009
70.168.93.218:1080
70.168.93.218:17026
70.183.166.29:21776
71.13.89.214:8080
72.11.148.222:56533
72.19.153.28:8080
72.205.70.231:13626
72.210.252.134:1080
74.115.25.72:1080
77.122.152.195:8080
77.238.129.15:8080
77.240.100.208:53281
77.247.93.10:21776
77.37.212.74:21776
77.68.9.233:80
77.70.115.104:8080
77.75.6.34:8080
77.77.47.138:8080
77.77.49.67:8080
77.82.209.215:3128
77.87.206.61:41258
77.91.138.114:8080
78.141.75.228:51493
78.156.140.151:53281
78.156.225.170:41258
78.156.49.26:41258
78.159.79.72:21776
78.186.111.31:8080
78.187.60.68:53281
78.26.206.117:8080
78.36.193.204:21776
78.36.196.226:21776
78.36.201.130:21776
78.37.24.39:8080
78.84.118.194:21776
79.119.167.235:21776
79.124.72.245:53281
79.130.217.94:21776
79.132.7.47:21776
79.141.171.10:3128
79.172.236.204:53281
79.173.87.19:8080
79.83.133.125:80
80.150.65.6:8080
80.153.43.31:8080
80.211.94.191:1080
80.241.255.131:21776
80.242.45.94:21776
80.55.220.228:8080
80.82.34.3:21776
80.87.184.49:41258
80.90.230.61:21776
81.10.183.214:8080
81.107.70.221:80
81.163.47.246:41258
81.163.58.84:41258
81.163.59.144:41258
81.163.59.172:41258
81.163.61.152:41258
81.180.66.40:53281
81.2.253.128:3131
81.24.93.162:8080
81.24.93.209:41258
81.24.94.168:41258
81.24.95.125:41258
81.25.20.235:53281
81.30.216.147:41258
81.30.221.248:21776
81.90.238.16:8080
81.95.139.186:53281
82.103.114.122:53281
82.114.86.1:21776
82.117.245.196:21776
82.130.246.69:45619
82.144.130.13:8080
82.78.189.28:21776
83.142.189.93:21776
83.142.234.130:9090
83.142.234.90:9090
83.174.230.195:8080
83.218.124.155:41258
83.218.229.126:8080
83.219.133.192:21776
83.219.150.55:41258
83.221.208.154:21776
83.239.78.134:53281
83.242.255.41:8080
83.97.104.105:41258
83.97.111.202:41258
84.1.114.158:53281
84.21.22.17:21776
84.21.28.154:21776
84.214.150.146:8080
84.236.111.189:21776
84.244.11.236:53281
84.41.39.43:53281
85.11.83.162:41258
85.114.186.11:21776
85.125.194.172:53281
85.158.186.12:41258
85.173.165.36:8080
85.202.128.207:53281
85.204.183.183:53281
85.206.189.249:8080
85.234.126.107:55555
85.236.247.188:8080
85.238.42.212:21776
85.73.51.38:21776
85.97.128.90:8080
86.123.55.55:21776
86.47.47.54:21776
86.57.146.126:3128
86.57.181.122:21776
87.110.238.99:21776
87.121.46.42:21776
87.121.49.250:53281
87.197.147.18:21776
87.203.212.98:21776
87.226.165.172:80
87.227.241.70:8080
87.229.109.129:21776
87.249.214.82:52727
87.255.27.163:3128
88.119.49.66:21776
88.147.142.25:8080
88.248.50.21:8080
88.83.201.249:41258
88.85.172.30:21776
88.86.126.27:53281
89.133.182.117:21776
89.133.198.140:61839
89.169.189.173:8080
89.176.66.134:8080
89.186.1.215:53281
89.190.249.185:53281
89.212.119.134:21776
89.216.114.113:21776
89.218.13.94:8080
89.218.22.178:8080
89.22.208.226:41258
89.22.208.227:41258
89.23.18.29:53281
89.239.96.118:41258
89.252.53.155:21776
89.29.93.114:8080
89.32.204.222:21776
89.46.235.200:21776
90.187.39.89:8080
90.230.130.48:21776
91.109.150.41:21776
91.109.151.145:21776
91.122.192.227:21776
91.133.81.73:53281
91.142.174.123:21776
91.185.51.35:3128
91.195.156.241:3128
91.197.105.94:8080
91.201.116.189:53281
91.201.122.130:41258
91.201.188.94:41258
91.203.165.132:8080
91.205.131.102:8080
91.205.239.120:8080
91.206.30.204:3129
91.206.30.205:3129
91.207.147.243:21776
91.211.106.21:41041
91.211.107.204:41258
91.211.121.115:21776
91.211.52.117:53281
91.214.31.39:21776
91.215.141.45:53281
91.220.135.146:41258
91.221.252.93:8080
91.225.231.185:53281
91.226.101.248:21776
91.237.123.201:41258
91.237.33.252:21776
91.238.56.17:41258
91.241.157.178:53281
91.244.115.105:8080
91.245.72.136:21776
91.92.78.2:21776
91.93.42.34:21776
92.222.74.221:80
92.223.239.236:21776
92.247.93.142:8080
92.255.169.13:53281
92.38.47.226:80
92.51.114.106:53281
92.61.91.135:21776
93.113.183.143:53281
93.171.190.231:8080
93.183.150.39:53281
93.183.220.67:53281
93.187.167.54:3128
93.75.151.125:21776
93.91.57.12:53281
93.92.206.148:8080
93.93.13.60:21776
94.102.127.8:8080
94.102.54.143:1080
94.138.177.218:8080
94.141.142.106:41258
94.141.157.182:8080
94.143.45.34:8080
94.156.57.19:8080
94.21.67.61:53281
94.240.30.17:53281
94.240.5.101:31773
94.41.106.191:53281
94.65.32.158:21776
95.105.67.194:53281
95.110.190.163:33319
95.110.227.5:50459
95.110.227.5:50538
95.110.227.5:57201
95.128.167.192:21776
95.143.110.239:8080
95.159.106.19:8080
95.174.115.185:53281
95.179.130.163:8080
95.181.234.188:53281
95.181.237.56:53281
95.181.237.8:8080
95.216.24.80:53281
95.34.118.30:21776
95.55.25.205:44331
95.67.174.94:8080
95.67.92.156:46229
95.78.118.51:53281
95.80.121.79:41258
95.80.93.44:41258
95.87.219.93:8080
95.87.222.161:8080
95.9.248.246:1080
96.238.35.177:53281
97.74.230.16:44951
97.74.230.16:7011
98.172.253.157:40753
98.181.99.197:10368